…
#### Move “Stories” and “Grades” to the first two columns

``` r
Data_clear_long <- Data_clear_long %>%
  select(Stories, Grades, everything())

print(Data_clear_long)
```

    ## # A tibble: 208 × 78
    ##    Stories       Grades StartDate EndDate Status Progress Duration (in seconds…¹
    ##    <chr>         <chr>  <chr>     <chr>   <chr>  <chr>    <chr>                 
    ##  1 high_BEJEDI0… <NA>   2024-09-… 2024-0… 0      100      2104                  
    ##  2 high_MAANAU1… <NA>   2024-09-… 2024-0… 0      100      2104                  
    ##  3 high_SAERBE0… 5      2024-09-… 2024-0… 0      100      2104                  
    ##  4 high_SADJSO0… 5      2024-09-… 2024-0… 0      100      2104                  
    ##  5 low_ANJETI02… <NA>   2024-09-… 2024-0… 0      100      2104                  
    ##  6 low_CLCHJO01… <NA>   2024-09-… 2024-0… 0      100      2104                  
    ##  7 low_COHEIG03… 5      2024-09-… 2024-0… 0      100      2104                  
    ##  8 low_VEYVEM11… 5      2024-09-… 2024-0… 0      100      2104                  
    ##  9 high_BEJEDI0… <NA>   2024-09-… 2024-0… 0      100      1081                  
    ## 10 high_MAANAU1… <NA>   2024-09-… 2024-0… 0      100      1081                  
    ## # ℹ 198 more rows
    ## # ℹ abbreviated name: ¹​`Duration (in seconds)`
    ## # ℹ 71 more variables: Finished <chr>, RecordedDate <chr>, ResponseId <chr>,
    ## #   DistributionChannel <chr>, UserLanguage <chr>, Q_RecaptchaScore <chr>,
    ## #   Age <chr>, Genre <chr>, Education <chr>, Groupe <chr>,
    ## #   exp_high_BEJEDI08_L_1_high <chr>, exp_high_BEJEDI08_L_2_high <chr>,
    ## #   exp_high_BEJEDI08_L_3_high <chr>, exp_high_BEJEDI08_L_4_high <chr>, …
…
#### Move “Question” and “Response” to the first two columns

``` r
Data_clear_long_Entertainment <- Data_clear_long_Entertainment %>%
  select(Stories, Grades, everything())

print(Data_clear_long_Entertainment)
```

    ## # A tibble: 176 × 78
    ##    Stories       Grades StartDate EndDate Status Progress Duration (in seconds…¹
    ##    <chr>          <dbl> <chr>     <chr>   <chr>  <chr>    <chr>                 
    ##  1 exp_high_BEJ…     NA 2024-09-… 2024-0… 0      100      2104                  
    ##  2 exp_high_MAA…     NA 2024-09-… 2024-0… 0      100      2104                  
    ##  3 exp_high_SAE…      4 2024-09-… 2024-0… 0      100      2104                  
    ##  4 exp_high_SAD…      4 2024-09-… 2024-0… 0      100      2104                  
    ##  5 exp_low_ANJE…     NA 2024-09-… 2024-0… 0      100      2104                  
    ##  6 exp_low_CLCH…     NA 2024-09-… 2024-0… 0      100      2104                  
    ##  7 exp_low_COHE…      4 2024-09-… 2024-0… 0      100      2104                  
    ##  8 exp_low_VEYV…      4 2024-09-… 2024-0… 0      100      2104                  
    ##  9 exp_high_BEJ…     NA 2024-09-… 2024-0… 0      100      1081                  
    ## 10 exp_high_MAA…     NA 2024-09-… 2024-0… 0      100      1081                  
    ## # ℹ 166 more rows
    ## # ℹ abbreviated name: ¹​`Duration (in seconds)`
    ## # ℹ 71 more variables: Finished <chr>, RecordedDate <chr>, ResponseId <chr>,
    ## #   DistributionChannel <chr>, UserLanguage <chr>, Q_RecaptchaScore <chr>,
    ## #   Age <dbl>, Genre <dbl>, Education <dbl>, Groupe <dbl>,
    ## #   high_BEJEDI08_1 <dbl>, exp_high_BEJEDI08_L_2_high <dbl>,
    ## #   exp_high_BEJEDI08_L_3_high <dbl>, exp_high_BEJEDI08_L_4_high <dbl>, …
…
#### Move “Question” and “Response” to the first two columns

``` r
Data_clear_long_Emotionality <- Data_clear_long_Emotionality %>%
  select(Stories, Grades, everything())

print(Data_clear_long_Emotionality)
```

    ## # A tibble: 176 × 78
    ##    Stories       Grades StartDate EndDate Status Progress Duration (in seconds…¹
    ##    <chr>          <dbl> <chr>     <chr>   <chr>  <chr>    <chr>                 
    ##  1 exp_high_BEJ…     NA 2024-09-… 2024-0… 0      100      2104                  
    ##  2 exp_high_MAA…     NA 2024-09-… 2024-0… 0      100      2104                  
    ##  3 exp_high_SAE…      3 2024-09-… 2024-0… 0      100      2104                  
    ##  4 exp_high_SAD…      4 2024-09-… 2024-0… 0      100      2104                  
    ##  5 exp_low_ANJE…     NA 2024-09-… 2024-0… 0      100      2104                  
    ##  6 exp_low_CLCH…     NA 2024-09-… 2024-0… 0      100      2104                  
    ##  7 exp_low_COHE…      4 2024-09-… 2024-0… 0      100      2104                  
    ##  8 exp_low_VEYV…      5 2024-09-… 2024-0… 0      100      2104                  
    ##  9 exp_high_BEJ…     NA 2024-09-… 2024-0… 0      100      1081                  
    ## 10 exp_high_MAA…     NA 2024-09-… 2024-0… 0      100      1081                  
    ## # ℹ 166 more rows
    ## # ℹ abbreviated name: ¹​`Duration (in seconds)`
    ## # ℹ 71 more variables: Finished <chr>, RecordedDate <chr>, ResponseId <chr>,
    ## #   DistributionChannel <chr>, UserLanguage <chr>, Q_RecaptchaScore <chr>,
    ## #   Age <dbl>, Genre <dbl>, Education <dbl>, Groupe <dbl>,
    ## #   high_BEJEDI08_1 <dbl>, exp_high_BEJEDI08_L_1_high <dbl>,
    ## #   exp_high_BEJEDI08_L_3_high <dbl>, exp_high_BEJEDI08_L_4_high <dbl>, …
…
#### Move “Question” and “Response” to the first two columns

``` r
Data_clear_long_Memorable <- Data_clear_long_Memorable %>%
  select(Stories, Grades, everything())

print(Data_clear_long_Memorable)
```

    ## # A tibble: 176 × 78
    ##    Stories       Grades StartDate EndDate Status Progress Duration (in seconds…¹
    ##    <chr>          <dbl> <chr>     <chr>   <chr>  <chr>    <chr>                 
    ##  1 exp_high_BEJ…     NA 2024-09-… 2024-0… 0      100      2104                  
    ##  2 exp_high_MAA…     NA 2024-09-… 2024-0… 0      100      2104                  
    ##  3 exp_high_SAE…      3 2024-09-… 2024-0… 0      100      2104                  
    ##  4 exp_high_SAD…      3 2024-09-… 2024-0… 0      100      2104                  
    ##  5 exp_low_ANJE…     NA 2024-09-… 2024-0… 0      100      2104                  
    ##  6 exp_low_CLCH…     NA 2024-09-… 2024-0… 0      100      2104                  
    ##  7 exp_low_COHE…      4 2024-09-… 2024-0… 0      100      2104                  
    ##  8 exp_low_VEYV…      4 2024-09-… 2024-0… 0      100      2104                  
    ##  9 exp_high_BEJ…     NA 2024-09-… 2024-0… 0      100      1081                  
    ## 10 exp_high_MAA…     NA 2024-09-… 2024-0… 0      100      1081                  
    ## # ℹ 166 more rows
    ## # ℹ abbreviated name: ¹​`Duration (in seconds)`
    ## # ℹ 71 more variables: Finished <chr>, RecordedDate <chr>, ResponseId <chr>,
    ## #   DistributionChannel <chr>, UserLanguage <chr>, Q_RecaptchaScore <chr>,
    ## #   Age <dbl>, Genre <dbl>, Education <dbl>, Groupe <dbl>,
    ## #   high_BEJEDI08_1 <dbl>, exp_high_BEJEDI08_L_1_high <dbl>,
    ## #   exp_high_BEJEDI08_L_2_high <dbl>, exp_high_BEJEDI08_L_4_high <dbl>, …
…
#### Move “Question” and “Response” to the first two columns

``` r
Data_clear_long_Originality <- Data_clear_long_Originality %>%
  select(Stories, Grades, everything())

print(Data_clear_long_Originality)
```

    ## # A tibble: 176 × 78
    ##    Stories       Grades StartDate EndDate Status Progress Duration (in seconds…¹
    ##    <chr>          <dbl> <chr>     <chr>   <chr>  <chr>    <chr>                 
    ##  1 exp_high_BEJ…     NA 2024-09-… 2024-0… 0      100      2104                  
    ##  2 exp_high_MAA…     NA 2024-09-… 2024-0… 0      100      2104                  
    ##  3 exp_high_SAE…      3 2024-09-… 2024-0… 0      100      2104                  
    ##  4 exp_high_SAD…      2 2024-09-… 2024-0… 0      100      2104                  
    ##  5 exp_low_ANJE…     NA 2024-09-… 2024-0… 0      100      2104                  
    ##  6 exp_low_CLCH…     NA 2024-09-… 2024-0… 0      100      2104                  
    ##  7 exp_low_COHE…      4 2024-09-… 2024-0… 0      100      2104                  
    ##  8 exp_low_VEYV…      4 2024-09-… 2024-0… 0      100      2104                  
    ##  9 exp_high_BEJ…     NA 2024-09-… 2024-0… 0      100      1081                  
    ## 10 exp_high_MAA…     NA 2024-09-… 2024-0… 0      100      1081                  
    ## # ℹ 166 more rows
    ## # ℹ abbreviated name: ¹​`Duration (in seconds)`
    ## # ℹ 71 more variables: Finished <chr>, RecordedDate <chr>, ResponseId <chr>,
    ## #   DistributionChannel <chr>, UserLanguage <chr>, Q_RecaptchaScore <chr>,
    ## #   Age <dbl>, Genre <dbl>, Education <dbl>, Groupe <dbl>,
    ## #   high_BEJEDI08_1 <dbl>, exp_high_BEJEDI08_L_1_high <dbl>,
    ## #   exp_high_BEJEDI08_L_2_high <dbl>, exp_high_BEJEDI08_L_3_high <dbl>, …
…
#### Move “Question” and “Response” to the first two columns

``` r
Data_clear_long_Engagement <- Data_clear_long_Engagement %>%
  select(Stories, Grades, everything())

print(Data_clear_long_Engagement)
```

    ## # A tibble: 176 × 78
    ##    Stories       Grades StartDate EndDate Status Progress Duration (in seconds…¹
    ##    <chr>          <dbl> <chr>     <chr>   <chr>  <chr>    <chr>                 
    ##  1 exp_high_BEJ…     NA 2024-09-… 2024-0… 0      100      2104                  
    ##  2 exp_high_MAA…     NA 2024-09-… 2024-0… 0      100      2104                  
    ##  3 exp_high_SAE…      4 2024-09-… 2024-0… 0      100      2104                  
    ##  4 exp_high_SAD…      3 2024-09-… 2024-0… 0      100      2104                  
    ##  5 exp_low_ANJE…     NA 2024-09-… 2024-0… 0      100      2104                  
    ##  6 exp_low_CLCH…     NA 2024-09-… 2024-0… 0      100      2104                  
    ##  7 exp_low_COHE…      4 2024-09-… 2024-0… 0      100      2104                  
    ##  8 exp_low_VEYV…      4 2024-09-… 2024-0… 0      100      2104                  
    ##  9 exp_high_BEJ…     NA 2024-09-… 2024-0… 0      100      1081                  
    ## 10 exp_high_MAA…     NA 2024-09-… 2024-0… 0      100      1081                  
    ## # ℹ 166 more rows
    ## # ℹ abbreviated name: ¹​`Duration (in seconds)`
    ## # ℹ 71 more variables: Finished <chr>, RecordedDate <chr>, ResponseId <chr>,
    ## #   DistributionChannel <chr>, UserLanguage <chr>, Q_RecaptchaScore <chr>,
    ## #   Age <dbl>, Genre <dbl>, Education <dbl>, Groupe <dbl>,
    ## #   high_BEJEDI08_1 <dbl>, exp_high_BEJEDI08_L_1_high <dbl>,
    ## #   exp_high_BEJEDI08_L_2_high <dbl>, exp_high_BEJEDI08_L_3_high <dbl>, …
…
