…
return(shannon_index)
}
```

### Calculation of the function in every data lines

``` r
data$shannon_index <- mapply(calculate_shannon_index_from_summary, 
                             data$total_emotion_words, 
                             data$categories_present)
print(data)
```

    ## # A tibble: 108 × 4
    ##    Stories  total_emotion_words categories_present shannon_index
    ##    <chr>                  <dbl>              <dbl>         <dbl>
    ##  1 ALFREV02                 108                 22          3.09
    ##  2 ALLILU11                  78                 21          3.04
    ##  3 ALROCH07                 101                 16          2.77
    ##  4 ANBLTE03                 181                 27          3.30
    ##  5 ANDASA05                  72                 16          2.77
    ##  6 ANJANO07                  86                 18          2.89
    ##  7 ANJBEL01                  96                 20          3.00
    ##  8 ANJETI02                  76                 15          2.71
    ##  9 ANMASO10                  66                 17          2.83
    ## 10 ANRAEM01                  87                 22          3.09
    ## # ℹ 98 more rows
…
### Filtered dataset between Quantiles

``` r
library(dplyr)

Q1 <- quantile(data$total_emotion_words, 0.25)
Q3 <- quantile(data$total_emotion_words, 0.75)

# Filter the data to include only rows between Q1 and Q3
filtered_data <- data[data$total_emotion_words >= Q1 & data$total_emotion_words <= Q3, ]
print(filtered_data)
```

    ## # A tibble: 54 × 5
    ##    Stories  total_emotion_words categories_present shannon_index    ID
    ##    <chr>                  <dbl>              <dbl>         <dbl> <int>
    ##  1 ALFREV02                 108                 22          3.09     1
    ##  2 ALLILU11                  78                 21          3.04     2
    ##  3 ALROCH07                 101                 16          2.77     3
    ##  4 ANDASA05                  72                 16          2.77     5
    ##  5 ANJANO07                  86                 18          2.89     6
    ##  6 ANJBEL01                  96                 20          3.00     7
    ##  7 ANJETI02                  76                 15          2.71     8
    ##  8 ANMASO10                  66                 17          2.83     9
    ##  9 ANRAEM01                  87                 22          3.09    10
    ## 10 BAMIMA05                  69                 14          2.64    15
    ## # ℹ 44 more rows
…
